<?xml version="1.0" encoding="UTF-8" standalone="no"?>
<!-- Created with Inkscape (http://www.inkscape.org/) -->

<svg
   xmlns:dc="http://purl.org/dc/elements/1.1/"
   xmlns:cc="http://creativecommons.org/ns#"
   xmlns:rdf="http://www.w3.org/1999/02/22-rdf-syntax-ns#"
   xmlns:svg="http://www.w3.org/2000/svg"
   xmlns="http://www.w3.org/2000/svg"
   xmlns:xlink="http://www.w3.org/1999/xlink"
   version="1.0"
   width="500"
   height="500"
   viewBox="0 0 1000 1000"
   id="page"
   xml:space="preserve"><metadata
     id="metadata12"><rdf:RDF><cc:Work
         rdf:about=""><dc:format>image/svg+xml</dc:format><dc:type
           rdf:resource="http://purl.org/dc/dcmitype/StillImage" /><dc:title></dc:title></cc:Work></rdf:RDF></metadata><defs
     id="defs38"><linearGradient
       id="linearGradient1312"><stop
         id="stop1314"
         style="stop-color:#999999;stop-opacity:1"
         offset="0" /><stop
         id="stop1316"
         style="stop-color:#555555;stop-opacity:1"
         offset="1" /></linearGradient><linearGradient
       x1="525.33698"
       y1="85.616997"
       x2="525.33698"
       y2="465.60999"
       id="linearGradient2388"
       xlink:href="#linearGradient1312"
       gradientUnits="userSpaceOnUse"
       gradientTransform="translate(-102.335,111.5472)" /><linearGradient
       x1="689.34747"
       y1="9.8939447"
       x2="689.34747"
       y2="519.69983"
       id="linearGradient7569"
       xlink:href="#linearGradient3076"
       gradientUnits="userSpaceOnUse"
       gradientTransform="matrix(-1,0,0,1,1102.335,111.5471)" /><linearGradient
       id="linearGradient3076"><stop
         id="stop3078"
         style="stop-color:#999999;stop-opacity:1"
         offset="0" /><stop
         id="stop3080"
         style="stop-color:#555555;stop-opacity:1"
         offset="1" /></linearGradient><linearGradient
       id="linearGradient3076-1"><stop
         id="stop3078-3"
         style="stop-color:#999999;stop-opacity:1"
         offset="0" /><stop
         id="stop3080-3"
         style="stop-color:#555555;stop-opacity:1"
         offset="1" /></linearGradient><linearGradient
       x1="525.33698"
       y1="85.616997"
       x2="525.33698"
       y2="465.60999"
       id="linearGradient2388-8"
       xlink:href="#linearGradient1312-2"
       gradientUnits="userSpaceOnUse"
       gradientTransform="translate(24.73428,-515.24838)" /><linearGradient
       id="linearGradient1312-2"><stop
         id="stop1314-2"
         style="stop-color:#999999;stop-opacity:1"
         offset="0" /><stop
         id="stop1316-1"
         style="stop-color:#555555;stop-opacity:1"
         offset="1" /></linearGradient><filter
       x="-0.220303"
       y="-0.263565"
       width="1.440606"
       height="1.52713"
       color-interpolation-filters="sRGB"
       id="filter3842"><feGaussianBlur
         id="feGaussianBlur3844"
         stdDeviation="26.893839" /></filter><linearGradient
       x1="525.33698"
       y1="85.616997"
       x2="525.33698"
       y2="465.60999"
       id="linearGradient3852"
       xlink:href="#linearGradient1312"
       gradientUnits="userSpaceOnUse"
       gradientTransform="translate(-102.335,111.5472)" /><linearGradient
       x1="689.34747"
       y1="9.8939447"
       x2="689.34747"
       y2="519.69983"
       id="linearGradient3855"
       xlink:href="#linearGradient3076"
       gradientUnits="userSpaceOnUse"
       gradientTransform="matrix(-1,0,0,1,1102.335,111.5471)" /></defs><path
     d="m 327.25,379.125 c -15.7489,0.039 -90.69331,33.19547 -133.09375,64.78125 -16.32884,-16.61756 -39.04844,-26.93902 -64.1875,-26.9375 -49.704,-0.002 -90.0045,40.28949 -90,90 0.002,49.703 40.2925,90.0025 90,90 6.3132,6.4e-4 12.46003,-0.6386 18.40625,-1.875 3.53699,17.41285 24.0356,31.5848 41.53125,28.5 17.726,-3.1265 34.41825,-38.04175 41.71875,-48.46875 7.3005,-10.427 40.67975,-2.62455 58.40625,-5.75 35.452,-6.2525 50.0505,-182.4495 39.625,-189.75 -0.48872,-0.34221 -1.29029,-0.50277 -2.40625,-0.5 z"
     transform="matrix(2.4,0,0,2.4,52.493761,-707.42842)"
     id="path1431-1"
     style="opacity:0.15;fill:#111111;fill-opacity:1;stroke:none;filter:url(#filter3842)" /><path
     d="m 786.40949,132.44615 c -20.852,-14.601 -342.02799,133.42001 -329.52599,204.32601 6.252,35.454 43.781,92.80801 29.182,113.66101 -14.601,20.852 -68.83,76.108 -62.578,111.562 6.251,35.453 47.955,64.654 83.408,58.403 35.452,-6.253 68.82999,-76.108 83.43099,-96.962 14.601,-20.854 81.333,-5.201 116.786,-11.452 70.904,-12.505 100.148,-364.93702 79.297,-379.53802 z"
     id="path1431"
     style="opacity:0.75;fill:url(#linearGradient3855);fill-opacity:1;stroke:#000000;stroke-width:20;stroke-linecap:round;stroke-linejoin:round;stroke-miterlimit:3.13260007" /><path
     d="m 207.002,387.1652 c 0.004,99.406 80.586,179.997 180.001,179.992 99.411,0.007 179.995,-80.586 179.994,-179.995 0.002,-99.413 -80.585,-180.004 -180,-179.998 -99.408,-0.004 -180.004,80.58 -179.995,180.001 z"
     id="path1439"
     style="opacity:0.75;fill:url(#linearGradient3852);fill-opacity:1;stroke:#000000;stroke-width:20;stroke-linecap:round;stroke-linejoin:round;stroke-miterlimit:3.13260007" /><path
     d="m 361.6245,411.41071 c 0,5.767 0,32.81365 0,40.96873 0,32.62032 4.20638,32.62498 25.375,32.625 16.9349,0 25.37502,-0.005 25.375,-32.625 0,-8.15552 5e-4,-29.21736 0,-40.74999 5.9879,0 33.90754,0 42.375,0 33.86982,0 33.87498,-4.0498 33.875,-24.4375 0,-16.31016 -0.004,-24.5 -33.875,-24.5 -8.46792,0 -30.4006,-4.6e-4 -42.375,0 0,-5.767 0,-32.5949 0,-40.75 0,-32.62031 -4.20638,-32.62499 -25.375,-32.62499 -16.9349,0 -25.37502,0.005 -25.375,32.62499 0,8.06752 -4.6e-4,28.70326 0,40.3125 -5.9879,0 -33.90754,0 -42.375,0 -33.8698,0 -33.875,4.0498 -33.875,24.4375 0,16.31016 0.005,24.5 33.875,24.5 8.46792,0 30.4006,0.2192 42.375,0.21876 z"
     id="path3390"
     style="opacity:0.75;fill:#000000;fill-opacity:1;stroke:#000000;stroke-width:5;stroke-linecap:round;stroke-linejoin:round;stroke-miterlimit:1.75;stroke-dasharray:none" /></svg>