<?xml version="1.0" encoding="UTF-8" standalone="no"?>
<!-- Created with Inkscape (http://www.inkscape.org/) -->

<svg
   xmlns:dc="http://purl.org/dc/elements/1.1/"
   xmlns:cc="http://creativecommons.org/ns#"
   xmlns:rdf="http://www.w3.org/1999/02/22-rdf-syntax-ns#"
   xmlns:svg="http://www.w3.org/2000/svg"
   xmlns="http://www.w3.org/2000/svg"
   xmlns:xlink="http://www.w3.org/1999/xlink"
   version="1.0"
   width="500"
   height="500"
   viewBox="0 0 1000 1000"
   id="page"
   xml:space="preserve"><metadata
     id="metadata11"><rdf:RDF><cc:Work
         rdf:about=""><dc:format>image/svg+xml</dc:format><dc:type
           rdf:resource="http://purl.org/dc/dcmitype/StillImage" /><dc:title></dc:title></cc:Work></rdf:RDF></metadata><defs
     id="defs38"><linearGradient
       id="linearGradient1312"><stop
         id="stop1314"
         style="stop-color:#999999;stop-opacity:1"
         offset="0" /><stop
         id="stop1316"
         style="stop-color:#555555;stop-opacity:1"
         offset="1" /></linearGradient><linearGradient
       x1="525.33698"
       y1="85.616997"
       x2="525.33698"
       y2="465.60999"
       id="linearGradient6415"
       xlink:href="#linearGradient1312"
       gradientUnits="userSpaceOnUse"
       gradientTransform="translate(-102.3354,111.5472)" /><linearGradient
       x1="299.33881"
       y1="9.8939447"
       x2="299.33881"
       y2="519.69983"
       id="linearGradient5747"
       xlink:href="#linearGradient2218"
       gradientUnits="userSpaceOnUse"
       gradientTransform="translate(-102.3354,111.5471)" /><linearGradient
       id="linearGradient2218"><stop
         id="stop2220"
         style="stop-color:#999999;stop-opacity:1"
         offset="0" /><stop
         id="stop2222"
         style="stop-color:#555555;stop-opacity:1"
         offset="1" /></linearGradient><linearGradient
       x1="299.33881"
       y1="9.8939447"
       x2="299.33881"
       y2="519.69983"
       id="linearGradient4917"
       xlink:href="#linearGradient2218"
       gradientUnits="userSpaceOnUse"
       gradientTransform="translate(-102.3354,111.5471)" /><linearGradient
       x1="299.33881"
       y1="9.8939447"
       x2="299.33881"
       y2="519.69983"
       id="linearGradient4917-2"
       xlink:href="#linearGradient2218-8"
       gradientUnits="userSpaceOnUse"
       gradientTransform="translate(-373.52154,-592.61834)" /><linearGradient
       id="linearGradient2218-8"><stop
         id="stop2220-9"
         style="stop-color:#999999;stop-opacity:1"
         offset="0" /><stop
         id="stop2222-6"
         style="stop-color:#555555;stop-opacity:1"
         offset="1" /></linearGradient><linearGradient
       x1="525.33698"
       y1="85.616997"
       x2="525.33698"
       y2="465.60999"
       id="linearGradient6415-8"
       xlink:href="#linearGradient1312-2"
       gradientUnits="userSpaceOnUse"
       gradientTransform="translate(-102.3354,111.5472)" /><linearGradient
       id="linearGradient1312-2"><stop
         id="stop1314-7"
         style="stop-color:#999999;stop-opacity:1"
         offset="0" /><stop
         id="stop1316-7"
         style="stop-color:#555555;stop-opacity:1"
         offset="1" /></linearGradient><linearGradient
       x1="525.33698"
       y1="85.616997"
       x2="525.33698"
       y2="465.60999"
       id="linearGradient3798"
       xlink:href="#linearGradient1312-2"
       gradientUnits="userSpaceOnUse"
       gradientTransform="translate(-373.52154,-592.61824)" /><linearGradient
       x1="525.33698"
       y1="85.616997"
       x2="525.33698"
       y2="465.60999"
       id="linearGradient3830"
       xlink:href="#linearGradient1312-2"
       gradientUnits="userSpaceOnUse"
       gradientTransform="translate(-102.3354,111.5472)" /><linearGradient
       x1="299.33881"
       y1="9.8939447"
       x2="299.33881"
       y2="519.69983"
       id="linearGradient3833"
       xlink:href="#linearGradient2218-8"
       gradientUnits="userSpaceOnUse"
       gradientTransform="matrix(0.5,0,0,0.5,-51.1677,55.77355)" /><filter
       x="-0.2202934"
       y="-0.26357874"
       width="1.4405868"
       height="1.5271575"
       color-interpolation-filters="sRGB"
       id="filter3836"><feGaussianBlur
         id="feGaussianBlur3838"
         stdDeviation="26.895205" /></filter><linearGradient
       x1="299.33881"
       y1="9.8939447"
       x2="299.33881"
       y2="519.69983"
       id="linearGradient3840"
       xlink:href="#linearGradient2218"
       gradientUnits="userSpaceOnUse"
       gradientTransform="translate(-102.3354,111.5471)" /><linearGradient
       x1="525.33698"
       y1="85.616997"
       x2="525.33698"
       y2="465.60999"
       id="linearGradient3842"
       xlink:href="#linearGradient1312"
       gradientUnits="userSpaceOnUse"
       gradientTransform="translate(-102.3354,111.5472)" /><linearGradient
       x1="525.33698"
       y1="85.616997"
       x2="525.33698"
       y2="465.60999"
       id="linearGradient3845"
       xlink:href="#linearGradient1312"
       gradientUnits="userSpaceOnUse"
       gradientTransform="translate(-102.3354,111.5472)" /><linearGradient
       x1="299.33881"
       y1="9.8939447"
       x2="299.33881"
       y2="519.69983"
       id="linearGradient3848"
       xlink:href="#linearGradient2218"
       gradientUnits="userSpaceOnUse"
       gradientTransform="translate(-102.3354,111.5471)" /></defs><path
     d="m 244.8125,417.8125 c -1.11596,-0.003 -1.94878,0.15779 -2.4375,0.5 -10.4255,7.3005 4.20425,183.4975 39.65625,189.75 17.72651,3.1255 51.10575,-4.677 58.40625,5.75 7.3005,10.427 23.99275,45.34225 41.71875,48.46875 17.49139,3.08405 37.98684,-11.09297 41.53125,-28.5 5.93782,1.23274 12.10266,1.87563 18.40625,1.875 49.7075,0.003 90,-40.297 90,-90 0.005,-49.71048 -40.296,-90.002 -90,-90 -25.13906,-0.002 -47.85866,10.31994 -64.1875,26.9375 C 335.5058,451.00797 260.5614,417.85154 244.8125,417.8125 z"
     transform="matrix(2.4,0,0,2.4,-425.41096,-800.27806)"
     id="path1431-3"
     style="opacity:0.15;fill:#111111;fill-opacity:1;stroke:none;filter:url(#filter3836)" /><path
     d="m 213.5912,132.44612 c 20.852,-14.60101 342.02801,133.42001 329.52601,204.32601 -6.252,35.45404 -43.781,92.80804 -29.182,113.66104 14.601,20.852 68.83,76.108 62.578,111.562 -6.251,35.453 -47.955,64.654 -83.408,58.403 -35.452,-6.253 -68.83,-76.108 -83.431,-96.962 -14.601,-20.854 -81.333,-5.201 -116.78601,-11.452 -70.904,-12.505 -100.148,-364.93705 -79.297,-379.53805 z"
     id="path1431"
     style="opacity:0.75;fill:url(#linearGradient3848);fill-opacity:1;stroke:#000000;stroke-width:20;stroke-linecap:round;stroke-linejoin:round;stroke-miterlimit:3.13260007" /><path
     d="m 792.9966,387.1652 c -0.004,99.406 -80.586,179.997 -180.001,179.992 -99.411,0.007 -179.995,-80.586 -179.994,-179.995 -0.002,-99.413 80.585,-180.004 180,-179.998 99.408,-0.004 180.004,80.58 179.995,180.001 z"
     id="path1439"
     style="opacity:0.75;fill:url(#linearGradient3845);fill-opacity:1;stroke:#000000;stroke-width:20;stroke-linecap:round;stroke-linejoin:round;stroke-miterlimit:3.13260007" /></svg>