<?xml version="1.0" encoding="UTF-8" standalone="no"?>
<!-- Created with Inkscape (http://www.inkscape.org/) -->

<svg
   xmlns:dc="http://purl.org/dc/elements/1.1/"
   xmlns:cc="http://creativecommons.org/ns#"
   xmlns:rdf="http://www.w3.org/1999/02/22-rdf-syntax-ns#"
   xmlns:svg="http://www.w3.org/2000/svg"
   xmlns="http://www.w3.org/2000/svg"
   xmlns:xlink="http://www.w3.org/1999/xlink"
   version="1.0"
   width="500"
   height="500"
   viewBox="0 0 1000 1000"
   id="page"
   xml:space="preserve"><metadata
     id="metadata12"><rdf:RDF><cc:Work
         rdf:about=""><dc:format>image/svg+xml</dc:format><dc:type
           rdf:resource="http://purl.org/dc/dcmitype/StillImage" /><dc:title></dc:title></cc:Work></rdf:RDF></metadata><defs
     id="defs38"><linearGradient
       id="linearGradient2312"><stop
         id="stop2314"
         style="stop-color:#ff2222;stop-opacity:1"
         offset="0" /><stop
         id="stop2316"
         style="stop-color:#dd0000;stop-opacity:1"
         offset="1" /></linearGradient><linearGradient
       x1="15.319938"
       y1="10"
       x2="15.319938"
       y2="471.00101"
       id="linearGradient6918"
       xlink:href="#linearGradient2312"
       gradientUnits="userSpaceOnUse"
       gradientTransform="translate(254.18256,111.6501)" /><linearGradient
       x1="15.319938"
       y1="10"
       x2="15.319938"
       y2="471.00101"
       id="linearGradient6918-5"
       xlink:href="#linearGradient2312-2"
       gradientUnits="userSpaceOnUse"
       gradientTransform="translate(254.18256,111.6501)" /><linearGradient
       id="linearGradient2312-2"><stop
         id="stop2314-6"
         style="stop-color:#ff2222;stop-opacity:1"
         offset="0" /><stop
         id="stop2316-5"
         style="stop-color:#dd0000;stop-opacity:1"
         offset="1" /></linearGradient><filter
       x="-0.24000163"
       y="-0.23999836"
       width="1.4800034"
       height="1.4799967"
       color-interpolation-filters="sRGB"
       id="filter3791"><feGaussianBlur
         id="feGaussianBlur3793"
         stdDeviation="44.099801" /></filter><linearGradient
       x1="15.319938"
       y1="10"
       x2="15.319938"
       y2="471.00101"
       id="linearGradient3814"
       xlink:href="#linearGradient2312"
       gradientUnits="userSpaceOnUse"
       gradientTransform="matrix(0.5,0,0,0.5,127.09128,55.82505)" /></defs><path
     d="m 1364.5653,1114.4073 c 0,121.777 -98.72,220.5 -220.498,220.5 -121.779,0 -220.5,-98.722 -220.497,-220.501 -0.002,-121.77502 98.718,-220.49902 220.497,-220.50002 121.776,0 220.5,98.725 220.498,220.50102 z"
     transform="matrix(1.2,0,0,1.2,-872.88136,-865.13755)"
     id="path1396-9"
     style="opacity:0.15;fill:#111111;fill-opacity:1;stroke:none;filter:url(#filter3791)" /><path
     d="m 500.00019,402.32592 c 5.942,5.942 33.848,33.81474 42.25,42.21874 33.615,33.61498 37.8025,29.44748 58.8125,8.4375 16.807,-16.806 25.24,-25.1975 -8.375,-58.8125 -8.405,-8.405 -30.1775,-30.17748 -42.0625,-42.0625 5.944,-5.943 33.6605,-33.59602 42.0625,-42 33.615,-33.616 29.383,-37.8035 8.375,-58.8125 -16.808,-16.807 -25.1975,-25.24002 -58.8125,8.375 -8.405,8.404 -30.117,30.17852 -42,42.0625 -5.944,-5.943 -33.6595,-33.6585 -42.0625,-42.0625 -17.858,-17.85744 -27.3769,-25.02548 -35.5625,-24.6875 -7.2226,0.29822 -13.4021,6.46454 -23.25,16.3125 -16.807,16.806 -25.1775,25.1975 8.4375,58.8125 8.3164,8.31646 29.6021,29.60218 41.5625,41.5625 -5.943,5.942 -33.6585,33.59598 -42.0625,42 -33.615,33.615 -29.384,37.8025 -8.375,58.8125 16.807,16.80798 25.1975,25.23898 58.8125,-8.375 8.404,-8.405 30.365,-29.89828 42.25,-41.78124 z"
     id="path2333-9"
     style="opacity:0.75;fill:#ffffff;stroke:none" /><path
     d="m 250,65.8125 c -60.8895,5e-4 -110.251,49.3625 -110.25,110.25 -0.001,60.8895 49.3605,110.25 110.25,110.25 60.889,0 110.2515,-49.3615 110.25,-110.25 10e-4,-60.888 -49.362,-110.25 -110.25,-110.25 z M 211.3125,117.5 c 4.0928,-0.16899 8.85227,3.41503 17.78125,12.34375 4.2015,4.202 18.05925,18.05975 21.03125,21.03125 5.9415,-5.94199 16.7975,-16.82925 21,-21.03125 16.80749,-16.80751 21.00225,-12.591 29.40625,-4.1875 10.50399,10.5045 12.62,12.59825 -4.1875,29.40625 -4.201,4.20199 -18.05925,18.0285 -21.03125,21 l 21.03125,21.03125 c 16.80749,16.8075 12.591,21.00325 4.1875,29.40625 -10.50501,10.50499 -12.59875,12.58874 -29.40625,-4.21875 -4.20101,-4.202 -18.154,-18.12275 -21.125,-21.09375 -5.9425,5.94148 -16.923,16.6725 -21.125,20.875 -16.80749,16.80699 -21.00275,12.59149 -29.40625,4.1875 -10.5045,-10.505 -12.62,-12.59875 4.1875,-29.40625 4.202,-4.20201 18.05975,-18.029 21.03125,-21 -5.98018,-5.98016 -16.62302,-16.62302 -20.78125,-20.78125 -16.8075,-16.8075 -12.62225,-21.00325 -4.21875,-29.40625 4.92398,-4.92398 8.0137,-8.00714 11.625,-8.15625 z"
     transform="scale(2,2)"
     id="path1396"
     style="opacity:0.75;fill:url(#linearGradient3814);fill-opacity:1;stroke:#000000;stroke-width:10;stroke-linecap:round;stroke-linejoin:round;stroke-miterlimit:3.13260007" /></svg>